digraph finite_state_machine {
	
	size = 20;
	node [shape = oval, style = filled, fixedsize=true, width=2, height=1, fillcolor="green"]; requested; to_be_configured; active; 
	node [shape = oval, style="invis"];
	nowhere -> requested [label="Orga beantragt Installation", labeldistance=200];
	node [shape = oval, style="solid", fixedsize=true, width=2, height=1]; closed; open;
	node [peripheries = 2]; over; 
	node [style = "solid"]; deleted; 
	node [peripheries = 1];
	requested -> declined [ label = "Easy-Con-Admin\llehnt Installation ab" ];
	requested -> to_be_configured [ label = "Easy-Con-Admin\lgenehmigt Installation" ];
	to_be_configured -> active [label = "Orga ändert Status"];
	to_be_configured -> to_be_deleted [label = "Orga ändert Status"];
	active -> to_be_configured;
	to_be_deleted -> active;
	active -> to_be_deleted [label = "Orga ändert Status"];
	active -> open [label = "Datum: Start der Anmeldung\l(Con und/oder Programmpunkte)"];
	open -> closed [label = "Datum: Ende der Anmeldung\l(Con und/oder Programmpunkte)"];
	closed -> over [label = "Datum: Ende des Cons"];
	declined -> to_be_deleted [label = "Orga ändert Status"];
	to_be_deleted -> deleted [label = "Easy-Con-Admin\llöscht den Con"];
	{rank = same; active, to_be_deleted}
	{rank = same; declined, to_be_configured}
}